<svg xmlns="http://www.w3.org/2000/svg" width="1220" height="39.598" viewBox="0 0 1220 39.598">
  <g id="Component_5_17" data-name="Component 5 – 17" opacity="0.5">
    <path id="Path_219" data-name="Path 219" d="M0,0H1220" transform="translate(0 19.5)" fill="#9a9a9a" stroke="#9a9a9a" stroke-width="3"/>
    <rect id="Rectangle_20" data-name="Rectangle 20" width="28" height="28" transform="translate(610.299) rotate(45)" fill="#9a9a9a"/>
  </g>
</svg>
