<svg xmlns="http://www.w3.org/2000/svg" xmlns:xlink="http://www.w3.org/1999/xlink" width="228.971" height="416.128" viewBox="0 0 228.971 416.128">
  <defs>
    <clipPath id="clip-path">
      <rect id="Rectangle_183" data-name="Rectangle 183" width="99.121" height="255.128" fill="#fbd75a"/>
    </clipPath>
    <clipPath id="clip-path-2">
      <rect id="Rectangle_184" data-name="Rectangle 184" width="228.971" height="209.474" fill="#ff5757"/>
    </clipPath>
  </defs>
  <g id="Group_255" data-name="Group 255" transform="translate(-1621 -558)">
    <g id="Group_129" data-name="Group 129" transform="translate(1733 719)">
      <g id="Group_128" data-name="Group 128" clip-path="url(#clip-path)">
        <path id="Path_341" data-name="Path 341" d="M11.42,12.344q.639,85.376-5.062,170.636-1.629,24.26-3.776,48.484c-.289,3.274,5.748,1.964,6.365-.53,7.252-29.28,7.364-59.55,8.477-89.512A437.75,437.75,0,0,1,20.9,96.648c2.129-15.157,5.325-30.138,7.808-45.236,2.722-16.56,4.462-33.268,3.15-50.052-.117-1.512-2.787-1.488-3.7-1.219-6.217,1.825-8.729,7.362-10,13.263a204.32,204.32,0,0,0-3.485,25.133c-1.514,17.134-2.437,34.331-3.6,51.493Q7.554,141.887,4.036,193.744,2.019,223.456,0,253.166c-.1,1.54,1.627,2.053,2.878,1.946,3.237-.276,7.347-4.325,3.543-6.973-2.183-1.519-7.758,1.534-4.877,3.539q-.733.938,1.942-.991l2.876,1.949Q13.184,152.186,20,51.734c.623-9.15,1.29-18.309,2.557-27.4.582-4.178,1.206-8.4,2.2-12.5.6-2.483,1.686-6.741,4.514-7.571q-1.851-.613-3.7-1.221c2.379,30.414-5.879,60.2-10.423,90.012-4.475,29.358-3.88,59.057-5.646,88.626-1,16.749-2.872,33.468-6.913,49.781q3.184-.264,6.365-.53,7.511-85.047,8.694-170.489.329-24.316.143-48.632c-.024-3.191-6.385-2.17-6.365.53" transform="translate(0 0)" fill="#fbd75a"/>
        <path id="Path_342" data-name="Path 342" d="M13.65,107.459A187.261,187.261,0,0,1,71.571,37.094c2.824-2.081,5.911-4.844,9.152-6.237,4.288-1.842,1.521,5.811.949,7.43A124.2,124.2,0,0,1,72.106,59c-7.543,13.08-17.138,24.865-27.551,35.758C32.474,107.391,19.22,118.842,5.954,130.2c-1.036.889-.645,1.664.534,1.994a5.875,5.875,0,0,0,4.451-1.193A312.52,312.52,0,0,0,86.092,49.946c2.442-3.819,4.9-7.671,7.06-11.657,1.794-3.309,3.463-7.141,2.933-11-1.147-8.359-11.116-8.214-17.264-6.309-7.786,2.414-14.866,7.5-21.472,12.146A169.18,169.18,0,0,0,36.963,49.99,172.735,172.735,0,0,0,2.6,96.825c-.623,1.247,2.149,1.21,2.666,1.147,1.334-.167,2.97-.752,3.606-2.025A166.994,166.994,0,0,1,73.82,26.6c2.848-1.653,6.081-3.5,9.48-3.5a6.572,6.572,0,0,1,6.526,6.263c.343,3.956-1.838,7.91-3.769,11.2q-3.268,5.556-6.78,10.969A309.585,309.585,0,0,1,48.383,91.607,307.92,307.92,0,0,1,5.954,130.2l4.986.8c25.25-21.62,51.367-44.167,67.836-73.538A125.766,125.766,0,0,0,88.788,34.933c.956-2.944,1.382-6.4-2.27-7.436-3.224-.915-7,.343-9.834,1.888C69.5,33.3,62.812,38.921,56.6,44.194A193.729,193.729,0,0,0,38.8,61.378,190.755,190.755,0,0,0,7.379,108.334c-.6,1.258,2.127,1.214,2.663,1.147,1.308-.163,3-.745,3.608-2.023" transform="translate(2.936 23.349)" fill="#fbd75a"/>
        <path id="Path_343" data-name="Path 343" d="M24.495,63.5l1.08-3.135-6.315.713q-5.738,26.408-13.5,52.309c-.754,2.513,5.527,1.345,6.315-.713C20.007,91.976,28.049,71.2,39.689,52.24l-6.107.219Q23.493,80.953,13.407,109.448c-.841,2.377,5.3,1.408,6.107-.219L36.334,75.45q4.086-8.2,8.17-16.406,2.164-4.344,4.325-8.685c.641-1.286,1.275-2.579,1.923-3.86a22.021,22.021,0,0,1,1.058-1.988,3.9,3.9,0,0,1,.511-.721q.932-.912-.973-.235L50.09,42.1Q39.959,66.528,31.948,91.75c-.78,2.461,5.32,1.382,6.109-.217Q53.767,59.6,69.479,27.666l-6.109.219q-1.8,11.184-3.593,22.369c-.452,2.811,5.3,1.182,6.107-.219l5.338-9.22q1.336-2.3,2.67-4.61c.76-1.314,2.075-2.891,2.533-4.347l.443-.65-1.16-.091c.065-.089.891,1.162.9,1.169a24.034,24.034,0,0,1,1.01,2.3c.782,1.738,1.64,3.293,3.409,4.169a4.826,4.826,0,0,0,4.473-.537c.86-.578,1.883-1.966.5-2.653-2.277-1.127-2.416-4.384-3.847-6.272-1.786-2.355-4.988-2.422-7.545-1.33-3.667,1.571-5.266,5.646-7.145,8.889L59.983,49.759l6.109-.219q1.8-11.184,3.593-22.369c.439-2.724-5.351-1.321-6.107.219L32.157,91.254l6.107-.217q8-25.205,18.142-49.65c.313-.749-.7-1.34-1.256-1.453-6.743-1.364-9.485,4.66-11.979,9.665q-4.927,9.893-9.852,19.784l-19.706,39.57,6.109-.219Q29.807,80.24,39.9,51.745c.891-2.52-5.262-1.16-6.109.219-11.822,19.261-19.973,40.4-28.031,61.427l6.315-.713q7.759-25.886,13.5-52.309c.584-2.685-5.611-1.325-6.315.713l-1.08,3.137c-.8,2.311,5.542,1.532,6.315-.715" transform="translate(6.677 30.044)" fill="#fbd75a"/>
      </g>
    </g>
    <g id="Group_131" data-name="Group 131" transform="translate(1621 558)">
      <g id="Group_130" data-name="Group 130" transform="translate(0 0)" clip-path="url(#clip-path-2)">
        <path id="Path_344" data-name="Path 344" d="M128.511,49.1c-20.192-7.361-44.178,9-43.07,30.85A35.688,35.688,0,0,0,100.092,106.8c9.264,6.618,21.425,7.971,32.3,5.2,10.568-2.69,20.213-9.251,25.481-18.92,4.486-8.235,5.921-18.948,1.62-27.539C154.469,55.5,142.85,52.277,132.4,53.964c-9.828,1.59-24.613,7.525-27.1,18.428-3.071,13.476,12.185,23.483,22.576,27.964,13.029,5.619,27.441,7.018,41.426,8.257q.282-2.936.561-5.875c-20.948,4.987-44.385,11.761-55.716,31.781-1.614,2.856,2.728,3.836,4.563,3.4C148.232,131,179.046,107.78,184.3,76.3c2.42-14.516-2.074-30-13.563-39.567-10.571-8.8-25.146-11.148-38.508-10.636C103.5,27.2,68.042,40.037,57.262,69.207c-5.1,13.791-2.973,28.718,6.487,40.1,9.917,11.929,24.667,18.074,39.79,19.987a130.151,130.151,0,0,0,29.26-.033,113.024,113.024,0,0,0,28.315-6.123c15.575-5.815,29.8-16.895,35.644-32.91,1.062-2.913-2.322-3.956-4.563-3.4a151.835,151.835,0,0,0-61.389,31.2,150.306,150.306,0,0,0-12.689,12.052c-3.719,3.964-7.424,8.4-8.325,13.941-1.8,11.042,8.722,19.4,18.52,21.068,12,2.05,25.046-2.671,35.769-7.685a89.424,89.424,0,0,0,15.855-9.289c4-3.014,7.927-7.122,8.586-12.305,1.437-11.29-12.983-17.243-21.251-20.807a134.261,134.261,0,0,0-34.751-9.37c-27.262-3.768-54.945-.972-82.128,2.053q.229,2.956.46,5.916a617.382,617.382,0,0,0,60.61-22.544q15.031-6.517,29.7-13.843c8.663-4.331,17.3-8.848,25.187-14.5,12.477-8.94,27.283-24.964,22.111-41.881-5.63-18.411-31.721-16.495-46.737-15.55a171.762,171.762,0,0,0-59.2,14.635c-16.078,7.2-31.541,17.129-42.708,30.961C28.993,64.285,23.467,81.144,26.684,98.3,29.875,115.315,40.7,130.653,55,140.227c33.735,22.6,77.007,15.065,111.78-.7,4.663-2.115,9.251-4.391,13.789-6.762q-1.789-2.483-3.577-4.968a410.637,410.637,0,0,0-70.117,47.268c-1.28,1.07-1.857,2.671-.656,4.015,1.274,1.421,3.561,1.029,5.1.414q29.03-11.626,57.025-25.628c15.931-7.987,32.309-16.786,42.98-31.557,10.206-14.129,15.163-31.873,15.918-49.155C228,55.674,223.4,38.638,210.7,26.128,198.494,14.1,181.771,7.467,165.14,4.4a116.164,116.164,0,0,0-55.887,3.5c-14.5,4.62-29.891,13.141-36.643,27.509-6.9,14.676.433,29.782,13.092,38.344,14.6,9.874,33.569,12.041,50.745,10.465,19.549-1.8,38.342-8.309,56.312-15.915,7.356-3.112,15.044-6.735,19.092-14.017,3.811-6.858,3.408-15.477.348-22.525-6.849-15.787-25-22.337-40.432-26.415A166.67,166.67,0,0,0,71.181,10.717a154.841,154.841,0,0,0-44.4,25.331C14.265,46.426,3.139,59.959.558,76.47c-2.7,17.268,4.663,34.914,16.432,47.352C29.159,136.688,45.4,145.1,62.148,150.371c36.376,11.439,75.273,7.745,112.245,1.522,9.161-1.541,18.289-3.272,27.409-5.036l-4.1-4.149a117.515,117.515,0,0,1-56.045,38.257q2.389,1.3,4.778,2.611C148.727,172.9,155.321,164,161.5,155.26a282.049,282.049,0,0,0,17.393-27.8,266.065,266.065,0,0,0,24.131-61.424c4.035-15.8,6.182-36.455-6.354-49.168C182.264,2.264,157.42,6.6,139.6,10.785c-21.411,5.023-42.134,14.053-61.392,24.566C61.37,44.542,44.328,56.684,35.913,74.529c-6.939,14.714-7.527,33.89,2.02,47.63C43.446,130.1,52,134.75,61.038,137.608a192.564,192.564,0,0,0,33.5,7.059,224.139,224.139,0,0,0,69.722-2.061c20.034-3.754,41.336-10.454,54.545-26.989,5.79-7.25,9.852-16.236,10.149-25.606.316-10.018-3.123-19.982-7.5-28.862-7.857-15.942-20.94-29.086-36.082-38.222A109.62,109.62,0,0,0,134.217,7.186C114.243,6.255,94.395,10.538,76.1,18.449A166.849,166.849,0,0,0,26.273,52.312C11.63,66.585-1.31,83.839,3.093,105.428c3.89,19.081,17.388,36.365,31.974,48.7a111.649,111.649,0,0,0,50.208,24.139,109.27,109.27,0,0,0,57.18-4.456c17.973-6.365,35.554-17.252,47.622-32.241,5.434-6.754,9.918-16.432,4.519-24.466-2.107-3.136-9.583.014-7.2,3.564,5.358,7.971-2.869,17.526-8.232,23.039a97.889,97.889,0,0,1-20.992,16.307A103.651,103.651,0,0,1,107.707,174.1c-34.9.466-68.761-19.016-87.2-48.417-5.246-8.363-9.6-17.861-10.293-27.839-.681-9.814,2.872-18.958,8.48-26.87,10.555-14.889,25.62-27.417,41-37.054C89.843,15.035,127.264,6.773,161.449,19.17a98.4,98.4,0,0,1,40.462,27.145c10.873,12.422,21.044,30.752,18.727,47.8C218.046,113.186,201,125.685,183.973,131.5c-19.585,6.692-40.988,9.022-61.6,8.878a211.421,211.421,0,0,1-32.156-2.739c-10.13-1.636-20.638-3.615-30.161-7.552-15.893-6.572-22.783-22.263-20.959-38.823,1.955-17.728,13.653-31.522,27.684-41.627,15.6-11.235,34.048-19.644,52.013-26.309A178.437,178.437,0,0,1,148.343,15c9.12-1.682,18.926-2.918,28.114-1.048a25.348,25.348,0,0,1,18.654,14.7c3.172,7.348,3.378,15.648,2.559,23.494-.961,9.207-3.5,18.185-6.275,26.989a264.554,264.554,0,0,1-10.712,28.274,264.808,264.808,0,0,1-13.857,26.875c-5.118,8.673-10.993,16.778-16.669,25.081-5.224,7.644-9.773,15.588-11.739,24.722-.536,2.5,3.221,3.1,4.778,2.611a127.817,127.817,0,0,0,61.171-41.429c2.417-2.989-1.647-4.623-4.1-4.149-33.882,6.553-68.734,13.073-103.373,9.667C65.826,147.733,29,135.469,13.8,105.754,6.414,91.3,6.158,74.722,14.118,60.49,21.547,47.2,34.3,37.129,47.023,29.21A156.25,156.25,0,0,1,135.009,6.168,144.323,144.323,0,0,1,180.8,15.19c13.568,5.2,29.178,16.7,25.291,33.417-1.84,7.917-8.943,11.32-15.79,14.254a254.412,254.412,0,0,1-24.395,9.147c-16.647,5.2-34.345,8.355-51.733,5.423-13.914-2.344-30.711-9.5-35.263-24.232-4.369-14.132,6.1-26.429,17.524-33.245,14.085-8.4,31.615-11.467,47.826-11.328,16.081.136,32.9,3.852,46.892,11.978,13.563,7.876,23.494,19.748,26.772,35.3,3.368,15.956.828,33.95-5.224,48.98-6.212,15.428-17.192,26.731-31.372,35.156-15.408,9.153-32.012,16.617-48.382,23.87q-12.508,5.541-25.214,10.614,2.226,2.213,4.446,4.429a400.523,400.523,0,0,1,68.385-46.187c4.726-2.521.5-7.1-3.577-4.968-31.71,16.557-69.719,28.77-104.495,13.9C42.716,128.97,23.752,94,39.768,63.52,47,49.764,59.633,39.182,72.929,31.546a156.609,156.609,0,0,1,51.1-18.193,160.426,160.426,0,0,1,28.035-2.3c7.865.033,17.782-.191,24.139,5.23,13.007,11.1-.169,30.221-9.713,38.309C158.778,61.127,149.881,66,140.909,70.568q-14.26,7.252-28.9,13.715a596.13,596.13,0,0,1-62.69,23.581c-3.762,1.181-4.378,6.452.46,5.913,20.864-2.322,41.919-4.557,62.941-3.648,20.434.885,42.033,4.661,59.843,15.278,3.686,2.2,8.347,5.567,8.012,10.424-.338,4.895-5.4,8.175-9.106,10.576a85.712,85.712,0,0,1-29.521,12.308c-9.349,1.835-22.212-.408-24.139-11.679-.863-5.053,2.33-9.264,5.51-12.809a127.129,127.129,0,0,1,11.124-10.878,142.22,142.22,0,0,1,59.293-30.79q-2.279-1.7-4.56-3.4c-10.361,28.41-44.41,34.811-71.1,34.835-14.477.011-29.388-2.943-40.914-12.182-10.078-8.08-16.108-20.181-14.382-33.21,3.795-28.645,34.563-42.221,59.984-45.64,11.649-1.568,24.2-1.307,34.952,3.947,11.807,5.769,18.683,17.831,19.171,30.8.61,16.209-8.042,31.1-19.225,42.232a84.894,84.894,0,0,1-40.479,22.25q2.279,1.7,4.56,3.4c9.874-17.442,31.593-22.813,49.664-27.117,3.131-.743,4.808-5.5.558-5.878-9.977-.885-20.1-1.77-29.8-4.4-8.954-2.431-18.9-6.457-24.939-13.832-2.785-3.4-5.276-8.11-3.833-12.613,1.391-4.337,6.291-6.975,10.122-8.826,7.78-3.762,18.066-5.368,25.013.972,5.676,5.183,6.433,13.7,4.674,20.78a28.952,28.952,0,0,1-14.878,18.741c-16.451,8.567-36.882,1.843-43.168-16.086-3.144-8.976-2-18.994,4.6-26.121,6.1-6.583,15.692-9.683,24.267-6.555,3.566,1.3,9.229-3.822,4.492-5.551" transform="translate(0 0)" fill="#ff5757"/>
        <path id="Path_345" data-name="Path 345" d="M96.287,73.156A500.486,500.486,0,0,0,37.773,87.171c-7.184,2.191-16.323,3.953-21.686,9.686s-4.848,14.725-3.074,21.83c3.5,13.993,14.42,25.448,27.057,31.868,15.229,7.737,32.7,8.137,49.2,4.955a140.6,140.6,0,0,0,49.392-19.933c6.716-4.4,13.413-9.877,17.924-16.6,4.094-6.106,6.408-14.66.3-20.317-10.5-9.732-29.252-4.13-37.432,5.85-3.659,4.462-7.816,12.776-3.082,17.927,5.426,5.9,14.605.52,19.506-3.212,13.712-10.443,22.544-27.537,22.029-44.889a55.275,55.275,0,0,0-23.853-43.577c-2.777-1.911-9.746,1.96-6.1,4.465a50.431,50.431,0,0,1,14.251,67.844,47.858,47.858,0,0,1-13.176,13.917c-2.219,1.552-5.668,3.871-6.566-.163-.593-2.657.662-5.592,1.976-7.829a19.746,19.746,0,0,1,13.07-9.248c5.4-1.032,13.222.446,14.913,6.531,1.778,6.408-3.705,12.822-7.843,16.979a73.9,73.9,0,0,1-17.036,12.419c-12.634,6.912-26.657,12.34-40.871,14.831-13.83,2.426-28.748,1.794-41.371-4.868-10.454-5.515-19.565-14.551-23.456-25.887-2.006-5.85-4.089-15.722.814-20.69,2.341-2.374,5.948-3.316,9.022-4.307q6.538-2.111,13.138-4.035A502.327,502.327,0,0,1,97.689,78.386c1.53-.27,3.719-1.892,3.242-3.672-.525-1.966-3.144-1.824-4.644-1.557" transform="translate(20.3 52.093)" fill="#ff5757"/>
      </g>
    </g>
  </g>
</svg>
