<svg id="Group_132" data-name="Group 132" xmlns="http://www.w3.org/2000/svg" xmlns:xlink="http://www.w3.org/1999/xlink" width="128.198" height="120" viewBox="0 0 128.198 120">
  <defs>
    <clipPath id="clip-path">
      <rect id="Rectangle_180" data-name="Rectangle 180" width="128.198" height="120" fill="#fbd75a"/>
    </clipPath>
  </defs>
  <g id="Group_122" data-name="Group 122" clip-path="url(#clip-path)">
    <path id="Path_256" data-name="Path 256" d="M65.771,41.319c-11.392-6.083-26.388,1.233-30.037,13.372-4.371,14.544,6.437,28.533,19.81,33.435,13.02,4.774,28.042-2.378,33.3-14.984,5.325-12.772.882-28.279-10.906-35.737-14.681-9.286-31.278.481-38.8,14.162A.938.938,0,0,0,40.6,52.7c10.564-8.777,23.429-20.664,37-9.458,11.145,9.2,11.525,28.28-.473,36.993C71.781,84.116,64.483,85.714,58.11,83.7c-6.984-2.213-14.8-8.5-17.336-15.524a20.164,20.164,0,0,1,4.384-20.465C50.425,42.381,58.246,41.116,65.4,42.2c.5.076.9-.6.373-.883" transform="translate(-2.705 -2.627)" fill="#fbd75a"/>
    <path id="Path_257" data-name="Path 257" d="M44.049,48.026a26.674,26.674,0,0,0-4.206,8.548c-.337,1.254-1.928,5.736.22,6.338,1.947.545,2-2.71,2.215-3.757A34.434,34.434,0,0,1,46,49.164a1.128,1.128,0,0,0-1.946-1.138" transform="translate(-3.033 -3.698)" fill="#fbd75a"/>
    <path id="Path_258" data-name="Path 258" d="M47.082,47.932c-1.777,1.639-2.463,3.934-2.955,6.247-.349,1.647-1.211,4.048.315,5.22a.562.562,0,0,0,.585,0c1.54-.972,1.05-3.371,1.366-4.98.412-2.105,1.165-4.1,1.238-6.26a.326.326,0,0,0-.55-.228" transform="translate(-3.391 -3.724)" fill="#fbd75a"/>
    <path id="Path_259" data-name="Path 259" d="M50.248,48.748a29.845,29.845,0,0,0-1.394,6.321c-.18,1.87-.624,3.836.221,5.572a.585.585,0,0,0,1,0c1-1.565.889-3.619,1.129-5.414.277-2.073.512-4.172.687-6.257.083-.979-1.363-1.079-1.644-.222" transform="translate(-3.781 -3.749)" fill="#fbd75a"/>
    <path id="Path_260" data-name="Path 260" d="M54.54,46.34a38.788,38.788,0,0,0-1.894,6.777c-.286,1.71-.79,3.8.238,5.3a.781.781,0,0,0,1.214.157c1.089-1.314.973-3.024,1.189-4.677a55.041,55.041,0,0,1,1.3-6.986,1.063,1.063,0,0,0-2.049-.565" transform="translate(-4.068 -3.55)" fill="#fbd75a"/>
    <path id="Path_261" data-name="Path 261" d="M56.663,42.579c-.633,2.554-.569,5.3-1.017,7.9-.356,2.073-1.277,4.319-.663,6.382a.619.619,0,0,0,1.023.269c1.605-1.56,1.764-4.189,2.04-6.327.344-2.662.8-5.584.232-8.228a.844.844,0,0,0-1.615,0" transform="translate(-4.264 -3.268)" fill="#fbd75a"/>
    <path id="Path_262" data-name="Path 262" d="M61.154,41.167l.773-.512-1.471-1.131c-.559,3.3-.705,6.648-1.241,9.954-.407,2.509-1.322,5.288-.553,7.761a.52.52,0,0,0,.861.228c1.685-1.917,1.861-4.5,2.187-6.974a54.311,54.311,0,0,0,.712-10.7c-.054-.788-1.1-1.419-1.709-.708L60.1,39.8c-.6.7.176,1.947,1.053,1.366" transform="translate(-4.543 -3.018)" fill="#fbd75a"/>
    <path id="Path_263" data-name="Path 263" d="M63.391,39.916c-.712,2.839-.634,5.872-.912,8.783-.275,2.878-1.237,5.822-.633,8.684a.684.684,0,0,0,1.236.161c1.611-2.332,1.664-5.423,1.933-8.186.3-3.095.594-6.42-.258-9.442a.714.714,0,0,0-1.366,0" transform="translate(-4.799 -3.068)" fill="#fbd75a"/>
    <path id="Path_264" data-name="Path 264" d="M68.573,39.91l.851-.3-1.339-1.339a48.775,48.775,0,0,0-1.509,9.085c-.3,2.548-1.419,5.689.053,7.944a.816.816,0,0,0,1.264.163c1.819-1.767,1.458-4.438,1.715-6.852.35-3.276.906-6.765.615-10.052a1.1,1.1,0,0,0-2.029-.55l-.458.813c-.3.528.2,1.313.836,1.088" transform="translate(-5.128 -2.917)" fill="#fbd75a"/>
    <path id="Path_265" data-name="Path 265" d="M70.989,39.811c-.974,2.083-.976,4.495-1.275,6.76-.313,2.371-1.623,5.334-.752,7.625a.784.784,0,0,0,1.291.341c1.75-1.591,1.712-4.48,2.016-6.716.338-2.494.8-5.484-.161-7.865-.174-.429-.871-.676-1.119-.146" transform="translate(-5.345 -3.075)" fill="#fbd75a"/>
    <path id="Path_266" data-name="Path 266" d="M74.263,43c.436-.132-.411,6.58-.435,6.69a27.384,27.384,0,0,0-.987,5.024.587.587,0,0,0,.989.41c2.627-2.23,3.117-6.307,3.053-9.564-.039-1.946-.283-5.737-3.2-4.673-1.3.476-.787,2.525.582,2.112" transform="translate(-5.67 -3.169)" fill="#fbd75a"/>
    <path id="Path_267" data-name="Path 267" d="M80,41l-.226.336-.538-.705C77.751,46.1,76.173,51.5,75.667,57.246c-.22,2.516,4.112,2.385,3.674-.5-.156-1.025.226-2.368.176-3.423-.019-.4-.65-.67-.84-.228a4.661,4.661,0,0,1-1.637,2.345l2.3,2.3c.526-2.409,3.693-17.049.585-17.505a.6.6,0,0,0-.63.256l-.146.194a.449.449,0,0,0,.07.543c.045.048.091.095.137.142A.39.39,0,0,0,80,41" transform="translate(-5.889 -3.131)" fill="#fbd75a"/>
    <path id="Path_268" data-name="Path 268" d="M83.528,45.993l.642-.838-1.438-1.437c-.291,2.163-.668,4.29-.863,6.467-.193,2.143-.73,4.437-.188,6.538.465,1.8,3.156,1.037,2.773-.764a1.6,1.6,0,0,0-.143-.421.531.531,0,0,0-.634-.36l-.368.07,1.037.422c.666.97.588-1.985.6-2.17q.057-1.421.113-2.841c.086-2.22,0-4.412-.028-6.631a1.185,1.185,0,0,0-1.759-1.009,2.953,2.953,0,0,0-1.828,2.692c-.133,1.186,1.848,1.45,2.087.282" transform="translate(-6.339 -3.339)" fill="#fbd75a"/>
    <path id="Path_269" data-name="Path 269" d="M88.93,47.607a3.641,3.641,0,0,0-.44,2.065c-.114,1.551-.259,3.067-.506,4.608-.334,2.076-1.329,5.088.409,6.733a.661.661,0,0,0,.78.1c1.556-.849,1.654-2.523,1.869-4.144a36.926,36.926,0,0,0,.5-5.827c-.011-.376-1.413-5.218-2.608-3.535" transform="translate(-6.803 -3.678)" fill="#fbd75a"/>
    <path id="Path_270" data-name="Path 270" d="M41.537,58.55c-1.761,2.07-1.489,5.838-1.568,8.429-.065,2.179,0,5.06,1.9,6.476a1.6,1.6,0,0,0,1.914-.247,1.491,1.491,0,0,0,.434-1.327c-.032-1.333-.79-2.677-.873-4.074-.165-2.8.65-6.832-1.148-9.172a.425.425,0,0,0-.658-.085" transform="translate(-3.11 -4.548)" fill="#fbd75a"/>
    <path id="Path_271" data-name="Path 271" d="M45.921,62.183a9.956,9.956,0,0,1,2.318-3.868H46.76c1.027,1.094.485,3.632.376,5.02-.175,2.233-.646,4.419-.9,6.639-.156,1.387.187,2.975,1.89,2.525a1.608,1.608,0,0,0,1.125-1.126,33.046,33.046,0,0,0,.869-9.684c-.106-2-.136-4-2.1-5.017a1.067,1.067,0,0,0-1.537.625,17.4,17.4,0,0,0-1.2,4.8c-.043.381.519.406.633.086" transform="translate(-3.525 -4.401)" fill="#fbd75a"/>
    <path id="Path_272" data-name="Path 272" d="M51.188,58.522l.29-.08-1.146-.3c.409.476-.06,2.738-.082,3.477-.042,1.385-.057,2.758-.031,4.143a36.567,36.567,0,0,0,.4,6.89,1.439,1.439,0,0,0,2.755,0,1.606,1.606,0,0,0-.432-1.707.557.557,0,0,0-.774,0l.207-.05,1,1.757a44.441,44.441,0,0,0-.113-9.85c-.14-1.849.244-4.956-1.26-6.326a1.166,1.166,0,0,0-1.145-.3l-.279.116c-1.334.553-.868,2.648.616,2.235" transform="translate(-3.875 -4.368)" fill="#fbd75a"/>
    <path id="Path_273" data-name="Path 273" d="M54.086,56.328c.38,2.665-.265,5.694-.33,8.4-.052,2.145-.546,4.4.994,6.049a.879.879,0,0,0,1.229,0c1.973-2.108,1-6.092.9-8.767-.077-2.059.375-5.337-1.752-6.484a.718.718,0,0,0-1.04.8" transform="translate(-4.175 -4.315)" fill="#fbd75a"/>
    <path id="Path_274" data-name="Path 274" d="M57.863,57.535c-1.245.7-.966,6.225-1.013,7.8-.069,2.347-.755,4.91.795,6.818a.712.712,0,0,0,1,0c1.973-2.139,1.224-6.376,1.2-9.115-.015-1.807.756-5.575-1.158-6.656a.761.761,0,0,0-.91.118c-.3.364-.365.455-.2.916a.2.2,0,0,0,.284.115" transform="translate(-4.409 -4.381)" fill="#fbd75a"/>
    <path id="Path_275" data-name="Path 275" d="M60.96,56.617c.052.031-.486,6.549-.521,7.434-.092,2.358-.942,5.552-.181,7.81a1.617,1.617,0,0,0,1.516,1.154l.223,0a1.3,1.3,0,0,0,1.226-.934c.948-3.159.577-7.09.492-10.354-.044-1.715.372-5.787-1.974-6.251a.744.744,0,0,0-.8.325L60.8,56a.456.456,0,0,0,.161.617" transform="translate(-4.666 -4.316)" fill="#fbd75a"/>
    <path id="Path_276" data-name="Path 276" d="M65.551,56.258c.011,3.215-.089,6.421-.166,9.634-.056,2.375-.579,4.686.93,6.614a.84.84,0,0,0,1.184,0c1.617-1.833,1.167-4.264,1.113-6.614-.074-3.214-.344-6.432-.614-9.634a1.225,1.225,0,0,0-2.447,0" transform="translate(-5.079 -4.287)" fill="#fbd75a"/>
    <path id="Path_277" data-name="Path 277" d="M71.459,55.355a38.181,38.181,0,0,0-1.369,8.427c-.267,2.424-.932,5.1.36,7.291a.486.486,0,0,0,.758.1c1.589-1.869,1.477-4.438,1.632-6.8.2-3.022.582-6.009.11-9.014-.128-.816-1.267-.646-1.49,0" transform="translate(-5.424 -4.266)" fill="#fbd75a"/>
    <path id="Path_278" data-name="Path 278" d="M75.133,53.822C74.512,56.889,74.086,59.9,73.716,63c-.319,2.681-1.27,5.514-.1,8.038a.679.679,0,0,0,1.062.136c1.582-1.984,1.4-4.422,1.6-6.889A72.415,72.415,0,0,0,76.461,54c-.044-.718-1.168-.969-1.328-.18" transform="translate(-5.686 -4.152)" fill="#fbd75a"/>
    <path id="Path_279" data-name="Path 279" d="M78.518,61.163a11.554,11.554,0,0,1,1.136-1.638l-2.21-1.286c-.376,2.1-.206,4.27-.531,6.4-.267,1.747-1.158,3.565-.24,5.192a1.214,1.214,0,0,0,1.63.427c1.773-.95,1.866-3.32,2.067-5.151.239-2.16.4-4.805-.376-6.865a1.335,1.335,0,0,0-2.551,0,9.5,9.5,0,0,1-.705,1.884,1.031,1.031,0,0,0,1.78,1.04" transform="translate(-5.937 -4.46)" fill="#fbd75a"/>
    <path id="Path_280" data-name="Path 280" d="M81.318,57.2c-.6,2.47-.634,5.048-1.064,7.553-.323,1.878-.979,3.655-.135,5.441a.685.685,0,0,0,1.062.136c1.625-1.356,1.621-3.7,1.845-5.687a25.216,25.216,0,0,0,.092-7.444.941.941,0,0,0-1.8,0" transform="translate(-6.204 -4.401)" fill="#fbd75a"/>
    <path id="Path_281" data-name="Path 281" d="M86.382,57.183a45.1,45.1,0,0,0-1.318,6.546c-.361,1.979-1.229,4.126-.993,6.131a1.3,1.3,0,0,0,2.4.65c1.254-1.8,1.392-4.47,1.693-6.6a21.022,21.022,0,0,0,.144-6.723c-.2-1.04-1.633-.852-1.925,0" transform="translate(-6.541 -4.396)" fill="#fbd75a"/>
    <path id="Path_282" data-name="Path 282" d="M89.29,57.853c-.467,2.5-.771,5-1.07,7.523-.239,2.021-.735,4.086.612,5.76a.721.721,0,0,0,1,0c1.544-1.285,1.455-3.41,1.615-5.282.217-2.553.4-5.088.434-7.649.018-1.451-2.315-1.845-2.593-.351" transform="translate(-6.844 -4.43)" fill="#fbd75a"/>
    <path id="Path_283" data-name="Path 283" d="M42.612,71.542c-.384,2.613.553,5.35,1.41,7.8.743,2.123,1.416,4.6,3.683,5.463a.749.749,0,0,0,.911-.517c.615-2.178-.827-4.256-1.6-6.221-.873-2.213-1.377-4.755-2.694-6.746-.392-.592-1.581-.635-1.707.223" transform="translate(-3.31 -5.518)" fill="#fbd75a"/>
    <path id="Path_284" data-name="Path 284" d="M51.437,70.311l.867-.92H50.731c1.962,1.849,1.6,7.016,1.752,9.485.137,2.181-.289,4.257,1.545,5.671a.745.745,0,0,0,.9-.116c2.26-1.979.713-6.677.311-9.306-.409-2.672-.48-6.063-3.157-7.481a1.124,1.124,0,0,0-1.522.4q-.267.588-.536,1.175c-.4.872.663,1.892,1.416,1.093" transform="translate(-3.887 -5.255)" fill="#fbd75a"/>
    <path id="Path_285" data-name="Path 285" d="M55.894,69.373l.835-1.25-2.349-.636c.136,2.941.254,5.881.389,8.82.123,2.65-.136,5.417.564,7.981.433,1.585,3.015,1.318,2.928-.4A43.934,43.934,0,0,0,58,78.066c-.05-.273-.413-.168-.443.06a7.6,7.6,0,0,1-1.839,4.713l2.491,1.45c1.163-5.245-.4-11.907-1.352-17.137a1.272,1.272,0,0,0-2.3-.3L53.892,68.2a1.16,1.16,0,0,0,2,1.17" transform="translate(-4.184 -5.156)" fill="#fbd75a"/>
    <path id="Path_286" data-name="Path 286" d="M59.58,72.979a8.313,8.313,0,0,1,1.369-1.552l-2.175-.9c.139,3.385.939,6.686.977,10.1.026,2.314-.936,5.456.981,7.128a.767.767,0,0,0,.9.115c2.5-1.447,1.747-5.346,1.573-7.844-.235-3.393-.61-7.039-2.055-10.141-.512-1.1-1.977-.608-2.329.3q-.378.811-.756,1.622c-.491.916.814,2.074,1.517,1.17" transform="translate(-4.511 -5.39)" fill="#fbd75a"/>
    <path id="Path_287" data-name="Path 287" d="M62.914,69.644A60.178,60.178,0,0,1,64.129,80.5c.075,2.661-.676,5.377.488,7.815a.97.97,0,0,0,1.517.2C68,86.142,67.6,82.751,67.459,79.836A45.2,45.2,0,0,0,65.4,68.959a1.289,1.289,0,0,0-2.483.685" transform="translate(-4.894 -5.297)" fill="#fbd75a"/>
    <path id="Path_288" data-name="Path 288" d="M68.673,71.795q.657-.469.158-.887a25.1,25.1,0,0,0-.169,3.07c-.08,2.044-.1,4.093-.148,6.139-.077,3.174-.918,6.847.793,9.649a.879.879,0,0,0,1.5,0c2.352-3.634,1.04-10.045,1.051-14.253.006-2.216.816-6.5-2.052-7.3a1.193,1.193,0,0,0-1.185.314c-.724.921-.589,1.7-.95,2.852a.55.55,0,0,0,1,.421" transform="translate(-5.266 -5.306)" fill="#fbd75a"/>
    <path id="Path_289" data-name="Path 289" d="M72.81,70.142c-.14,3.75-.465,7.463-.8,11.2-.278,3.154-1.352,6.886-.129,9.828a1.026,1.026,0,1,0,1.882-.794l-.126-.267a.62.62,0,0,0-.691-.281L72.6,89.9l1.163,1.513c1.929-2.529,1.674-6.185,1.853-9.276a113.69,113.69,0,0,0-.105-12,1.353,1.353,0,0,0-2.7,0" transform="translate(-5.551 -5.358)" fill="#fbd75a"/>
    <path id="Path_290" data-name="Path 290" d="M77.089,72.209l.942-.759-.646-1.139c-.809,3.148-.794,6.433-1.182,9.649-.313,2.591-1.85,6.053-.151,8.335a.76.76,0,0,0,1.013.266c2.473-1.367,2.3-4.718,2.562-7.265.38-3.644.662-7.447-.456-10.985a.933.933,0,0,0-1.359-.553,3.414,3.414,0,0,0-1.545,2.1c-.128.475.618.831.823.348" transform="translate(-5.859 -5.418)" fill="#fbd75a"/>
    <path id="Path_291" data-name="Path 291" d="M82.39,70.047c-.977,3.011-1.764,6.144-2.585,9.2-.557,2.076-1.715,4.967.035,6.665a.734.734,0,0,0,.721.19c2.642-.958,2.618-4.6,2.972-7.025.439-3,1.12-6.121-.026-9.034a.585.585,0,0,0-1.118,0" transform="translate(-6.142 -5.42)" fill="#fbd75a"/>
    <path id="Path_292" data-name="Path 292" d="M87.125,69.1a14.982,14.982,0,0,0-1.134,5.247,67.224,67.224,0,0,0-.652,6.706,1.716,1.716,0,0,0,3.355.454c.99-3.46,1.369-9.185-.512-12.407a.617.617,0,0,0-1.057,0" transform="translate(-6.643 -5.356)" fill="#fbd75a"/>
    <path id="Path_293" data-name="Path 293" d="M69.709,1.456c.009,4.157-.05,8.335.133,12.489.133,3.035.267,5.941,2.279,8.328a.747.747,0,0,0,1.163-.15c1.844-2.985,1.2-6.4.812-9.738-.441-3.78-.969-7.551-1.476-11.322-.226-1.68-2.913-1.234-2.909.394" transform="translate(-5.426 0)" fill="#fbd75a"/>
    <path id="Path_294" data-name="Path 294" d="M83.486,30.927c2.878-.741,4.088-4.485,5.279-6.938a48.363,48.363,0,0,0,3.537-10.7c.113-.491-.543-.981-.916-.533A47.663,47.663,0,0,0,85.1,21.843c-1.223,2.417-3.593,5.886-2.482,8.589a.728.728,0,0,0,.871.5" transform="translate(-6.408 -0.979)" fill="#fbd75a"/>
    <path id="Path_295" data-name="Path 295" d="M96.215,40.605a34.338,34.338,0,0,0,18.859-12.773c.455-.639-.293-1.28-.908-1.182a34.172,34.172,0,0,0-19.612,11.1,1.721,1.721,0,0,0,1.661,2.852" transform="translate(-7.325 -2.074)" fill="#fbd75a"/>
    <path id="Path_296" data-name="Path 296" d="M51.866,25.419c.246-2.5-2.024-5.679-2.867-7.991-1.26-3.461-2.767-7-5.509-9.55a.751.751,0,0,0-1.264.524c-.482,3.9,2.434,19.846,9.12,17.7a.74.74,0,0,0,.52-.683" transform="translate(-3.283 -0.597)" fill="#fbd75a"/>
    <path id="Path_297" data-name="Path 297" d="M40.934,35.266A55.143,55.143,0,0,0,24.526,23.331a.748.748,0,0,0-1.013,1.013c2.854,6.232,9.258,11.881,15.98,13.4a1.494,1.494,0,0,0,1.441-2.476" transform="translate(-1.824 -1.809)" fill="#fbd75a"/>
    <path id="Path_298" data-name="Path 298" d="M26.929,53.417c-2.749-3.222-6.888-5.183-10.716-6.827-3.312-1.421-6.639-2.9-10.3-2.331a.78.78,0,0,0-.341,1.292c2.577,2.71,6.348,3.849,9.641,5.458,3.371,1.648,6.792,3.687,10.459,4.56a1.3,1.3,0,0,0,1.253-2.152" transform="translate(-0.418 -3.435)" fill="#fbd75a"/>
    <path id="Path_299" data-name="Path 299" d="M22.137,71.8c-3.807-1.076-8.349-.03-12.263.171-3.489.179-6.947.444-9.694,2.763-.414.349-.048.959.409.989,4.237.279,8.712-.5,12.952-.854,3.166-.26,6.474-.361,8.624-2.961a.065.065,0,0,0-.029-.108" transform="translate(0 -5.552)" fill="#fbd75a"/>
    <path id="Path_300" data-name="Path 300" d="M30.378,85.918c-3.249-1.265-7.2,2.661-9.881,4.184-3.8,2.162-8.383,3.893-11.347,7.2a1.043,1.043,0,0,0,.729,1.759c4.628.086,9.094-2.67,12.932-5,2.637-1.6,8.166-3.956,7.969-7.613a.574.574,0,0,0-.4-.527" transform="translate(-0.69 -6.668)" fill="#fbd75a"/>
    <path id="Path_301" data-name="Path 301" d="M48.949,103.506a.1.1,0,0,0,0-.194.1.1,0,0,0,0,.194" transform="translate(-3.803 -8.042)" fill="#fbd75a"/>
    <path id="Path_302" data-name="Path 302" d="M50.646,100.347c-3.52,1.106-6.547,4.309-8.957,6.979a24.5,24.5,0,0,0-5.924,9.868.844.844,0,0,0,1.4.814,70.123,70.123,0,0,0,7.767-8.246c2.228-2.572,5.155-5.112,6.659-8.185a.848.848,0,0,0-.945-1.23" transform="translate(-2.781 -7.808)" fill="#fbd75a"/>
    <path id="Path_303" data-name="Path 303" d="M69.65,104.283c-1.109,2.927-.293,7.743-.153,10.791.188,4.108-.255,9.211,2.338,12.627a.783.783,0,0,0,1.334,0c2.1-4.009.835-9.147.621-13.5-.163-3.323.344-7.413-2.017-10.045a1.364,1.364,0,0,0-1.342-.354c-.332.1-.648.134-.781.483" transform="translate(-5.377 -8.076)" fill="#fbd75a"/>
    <path id="Path_304" data-name="Path 304" d="M83.941,106.257c1.707,4,3.064,8.168,4.6,12.237,1.16,3.078,2.086,6.329,4.65,8.536a.651.651,0,0,0,1.012-.13c3.416-7.21-2.685-16.96-6.59-22.788a2.127,2.127,0,0,0-3.67,2.145" transform="translate(-6.517 -8.024)" fill="#fbd75a"/>
    <path id="Path_305" data-name="Path 305" d="M95.379,97.292c.241,3.972,6.119,6.857,9.1,8.664,4.6,2.781,8.825,4.57,14.132,3.216a1.01,1.01,0,0,0,.6-1.466c-2.42-4.221-5.752-6.08-10.2-7.966-3.892-1.652-7.9-3.494-12.139-3.941a1.5,1.5,0,0,0-1.495,1.494" transform="translate(-7.424 -7.456)" fill="#fbd75a"/>
    <path id="Path_306" data-name="Path 306" d="M104.018,85.894c4.122,1.832,8.54,2.171,12.993,2.5,4.245.311,9.172.908,12.818-1.662a1.08,1.08,0,0,0,0-1.835c-3.417-2.352-7.952-2.03-11.941-2.122-4.513-.1-9.07-.548-13.516.413a1.5,1.5,0,0,0-.354,2.707" transform="translate(-8.04 -6.428)" fill="#fbd75a"/>
    <path id="Path_307" data-name="Path 307" d="M111.272,67.514c6.356-.555,13.4-1.378,18.631-5.347.656-.5.559-1.812-.471-1.74-6.132.428-12.03,2.547-18.16,3.158-2.484.248-2.531,4.15,0,3.928" transform="translate(-8.515 -4.703)" fill="#fbd75a"/>
    <path id="Path_308" data-name="Path 308" d="M111.523,53.247c8.157-5.485,17.567-9.711,25.016-16.137.385-.331-.03-.912-.469-.807-9.548,2.279-18.193,8.684-26.205,14.108-1.739,1.178-.1,4.021,1.658,2.836" transform="translate(-8.494 -2.825)" fill="#fbd75a"/>
  </g>
</svg>
