<svg xmlns="http://www.w3.org/2000/svg" width="139.23" height="139.214" viewBox="0 0 139.23 139.214">
  <path id="Path_7450" data-name="Path 7450" d="M69.626.891a69.607,69.607,0,1,0,69.6,69.621A69.628,69.628,0,0,0,69.626.891m35.059,55.575c.043.756.054,1.5.054,2.28,0,23.174-17.648,49.909-49.909,49.909a49.737,49.737,0,0,1-26.907-7.881,38.393,38.393,0,0,0,4.192.243A35.192,35.192,0,0,0,53.906,93.5a17.562,17.562,0,0,1-16.39-12.176,17.616,17.616,0,0,0,7.925-.3A17.564,17.564,0,0,1,31.364,63.818a1.485,1.485,0,0,1,.011-.221,17.446,17.446,0,0,0,7.93,2.2,17.573,17.573,0,0,1-5.424-23.418A49.87,49.87,0,0,0,70.042,60.7a18.314,18.314,0,0,1-.454-4A17.568,17.568,0,0,1,99.947,44.7a34.8,34.8,0,0,0,11.139-4.251,17.6,17.6,0,0,1-7.719,9.707,35.409,35.409,0,0,0,10.075-2.766,35.525,35.525,0,0,1-8.757,9.081" transform="translate(0 -0.891)" fill="#0099a8"/>
</svg>
